{
    "key": "group_574f2e01ccf20",
    "title": "Options",
    "fields": [
        {
            "key": "field_4fc73f4370794",
            "label": "Phone Number",
            "name": "phone_number",
            "type": "text",
            "instructions": "",
            "required": 0,
            "conditional_logic": 0,
            "wrapper": {
                "width": "",
                "class": "",
                "id": ""
            },
            "default_value": "",
            "formatting": "none",
            "maxlength": "",
            "placeholder": "",
            "prepend": "",
            "append": "",
            "readonly": 0,
            "disabled": 0
        },
        {
            "key": "field_4fc73f4371288",
            "label": "Facebook Link",
            "name": "facebook_link",
            "type": "text",
            "instructions": "",
            "required": 0,
            "conditional_logic": 0,
            "wrapper": {
                "width": "",
                "class": "",
                "id": ""
            },
            "default_value": "",
            "formatting": "none",
            "maxlength": "",
            "placeholder": "",
            "prepend": "",
            "append": "",
            "readonly": 0,
            "disabled": 0
        },
        {
            "key": "field_4fc73f43720b8",
            "label": "Twitter Link",
            "name": "twitter_link",
            "type": "text",
            "instructions": "",
            "required": 0,
            "conditional_logic": 0,
            "wrapper": {
                "width": "",
                "class": "",
                "id": ""
            },
            "default_value": "",
            "formatting": "none",
            "maxlength": "",
            "placeholder": "",
            "prepend": "",
            "append": "",
            "readonly": 0,
            "disabled": 0
        },
        {
            "key": "field_4fc73f4372b6c",
            "label": "Main Header Navigation Menu",
            "name": "menu",
            "type": "repeater",
            "instructions": "",
            "required": 0,
            "conditional_logic": 0,
            "wrapper": {
                "width": "",
                "class": "",
                "id": ""
            },
            "collapsed": "field_556596942da2c",
            "min": 0,
            "max": 0,
            "layout": "table",
            "button_label": "Add Menu Item",
            "sub_fields": [
                {
                    "key": "field_4fc73f4372b96",
                    "label": "Image",
                    "name": "image",
                    "type": "image",
                    "instructions": "",
                    "required": 0,
                    "conditional_logic": 0,
                    "wrapper": {
                        "width": "",
                        "class": "",
                        "id": ""
                    },
                    "preview_size": "large",
                    "return_format": "url",
                    "library": "all",
                    "min_width": 0,
                    "min_height": 0,
                    "min_size": 0,
                    "max_width": 0,
                    "max_height": 0,
                    "max_size": 0,
                    "mime_types": ""
                },
                {
                    "key": "field_4fc73f4372b86",
                    "label": "Page",
                    "name": "page",
                    "type": "post_object",
                    "instructions": "",
                    "required": 0,
                    "conditional_logic": 0,
                    "wrapper": {
                        "width": "",
                        "class": "",
                        "id": ""
                    },
                    "post_type": [],
                    "taxonomy": [],
                    "allow_null": 0,
                    "multiple": 0,
                    "return_format": "object",
                    "ui": 1
                },
                {
                    "key": "field_556596942da2c",
                    "label": "Custom Title",
                    "name": "custom_title",
                    "type": "text",
                    "instructions": "",
                    "required": 0,
                    "conditional_logic": 0,
                    "wrapper": {
                        "width": "",
                        "class": "",
                        "id": ""
                    },
                    "default_value": "",
                    "placeholder": "",
                    "prepend": "",
                    "append": "",
                    "maxlength": ""
                }
            ]
        },
        {
            "key": "field_50331c72ae1a8",
            "label": "Footer Menu",
            "name": "footer_menu",
            "type": "repeater",
            "instructions": "",
            "required": 0,
            "conditional_logic": 0,
            "wrapper": {
                "width": "",
                "class": "",
                "id": ""
            },
            "row_min": 0,
            "row_limit": "",
            "layout": "table",
            "button_label": "Add Footer Menu Item",
            "min": 0,
            "max": 0,
            "collapsed": "",
            "sub_fields": [
                {
                    "key": "field_4fc73f4372b96",
                    "label": "Image",
                    "name": "image",
                    "type": "image",
                    "instructions": "",
                    "required": 0,
                    "conditional_logic": 0,
                    "wrapper": {
                        "width": "",
                        "class": "",
                        "id": ""
                    },
                    "preview_size": "large",
                    "return_format": "url",
                    "library": "all",
                    "min_width": 0,
                    "min_height": 0,
                    "min_size": 0,
                    "max_width": 0,
                    "max_height": 0,
                    "max_size": 0,
                    "mime_types": ""
                },
                {
                    "key": "field_4fc73f4372b86",
                    "label": "Page",
                    "name": "page",
                    "type": "post_object",
                    "instructions": "",
                    "required": 0,
                    "conditional_logic": 0,
                    "wrapper": {
                        "width": "",
                        "class": "",
                        "id": ""
                    },
                    "post_type": [],
                    "taxonomy": [],
                    "allow_null": 0,
                    "multiple": 0,
                    "return_format": "object",
                    "ui": 1
                }
            ]
        },
        {
            "key": "field_5967dc2a37875",
            "label": "Footer Contact Copy",
            "name": "footer_contact_copy",
            "type": "wysiwyg",
            "instructions": "",
            "required": 0,
            "conditional_logic": 0,
            "wrapper": {
                "width": "",
                "class": "",
                "id": ""
            },
            "default_value": "ZipZone Outdoor Adventures<br\/>\r\n7925 N High St  <br\/>\r\nColumbus, OH 43235<br\/>\r\n(614) 847-9477<br\/>",
            "tabs": "all",
            "toolbar": "full",
            "media_upload": 1,
            "delay": 0
        },
        {
            "key": "field_4fc74a584f0f7",
            "label": "Widgets",
            "name": "widgets",
            "type": "repeater",
            "instructions": "",
            "required": 0,
            "conditional_logic": 0,
            "wrapper": {
                "width": "",
                "class": "",
                "id": ""
            },
            "row_min": 0,
            "row_limit": "",
            "layout": "table",
            "button_label": "Add Widget",
            "min": 0,
            "max": 0,
            "collapsed": "",
            "sub_fields": [
                {
                    "key": "field_4fc74a584f123",
                    "label": "Image",
                    "name": "image",
                    "type": "image",
                    "instructions": "",
                    "required": 0,
                    "conditional_logic": 0,
                    "wrapper": {
                        "width": "",
                        "class": "",
                        "id": ""
                    },
                    "preview_size": "large",
                    "return_format": "url",
                    "library": "all",
                    "min_width": 0,
                    "min_height": 0,
                    "min_size": 0,
                    "max_width": 0,
                    "max_height": 0,
                    "max_size": 0,
                    "mime_types": ""
                },
                {
                    "key": "field_4fc74a584f113",
                    "label": "Link",
                    "name": "link",
                    "type": "text",
                    "instructions": "",
                    "required": 0,
                    "conditional_logic": 0,
                    "wrapper": {
                        "width": "",
                        "class": "",
                        "id": ""
                    },
                    "default_value": "",
                    "formatting": "none",
                    "maxlength": "",
                    "placeholder": "",
                    "prepend": "",
                    "append": "",
                    "readonly": 0,
                    "disabled": 0
                }
            ]
        },
        {
            "key": "field_4fc8b54f3fda0",
            "label": "Galleries per page",
            "name": "galleries_per_page",
            "type": "text",
            "instructions": "How many galleries to show per page?",
            "required": 0,
            "conditional_logic": 0,
            "wrapper": {
                "width": "",
                "class": "",
                "id": ""
            },
            "default_value": 2,
            "formatting": "none",
            "maxlength": "",
            "placeholder": "",
            "prepend": "",
            "append": "",
            "readonly": 0,
            "disabled": 0
        },
        {
            "key": "field_4fc8b54f401ea",
            "label": "Videos per page",
            "name": "videos_per_page",
            "type": "text",
            "instructions": "How many videos to show per page?",
            "required": 0,
            "conditional_logic": 0,
            "wrapper": {
                "width": "",
                "class": "",
                "id": ""
            },
            "default_value": 6,
            "formatting": "none",
            "maxlength": "",
            "placeholder": "",
            "prepend": "",
            "append": "",
            "readonly": 0,
            "disabled": 0
        },
        {
            "key": "field_4fc8b54f54fd4",
            "label": "Events\/Discounts per page",
            "name": "posts_per_page",
            "type": "text",
            "instructions": "",
            "required": 0,
            "conditional_logic": 0,
            "wrapper": {
                "width": "",
                "class": "",
                "id": ""
            },
            "default_value": 5,
            "formatting": "none",
            "maxlength": "",
            "placeholder": "",
            "prepend": "",
            "append": "",
            "readonly": 0,
            "disabled": 0
        }
    ],
    "location": [
        [
            {
                "param": "options_page",
                "operator": "==",
                "value": "acf-options"
            }
        ]
    ],
    "menu_order": 0,
    "position": "normal",
    "style": "default",
    "label_placement": "top",
    "instruction_placement": "label",
    "hide_on_screen": "",
    "active": 1,
    "description": "",
    "modified": 1500394053
}